{
    "questions": [
        {
            "question": "Theo một câu hát: Ba thương con vì con giống mẹ. Mẹ thương con vì con giống… ai?",
            "answers": [
                "Ông hàng xóm",
                "Chú cạnh nhà",
                "Ba",
                "Bác đầu ngõ"
            ],
            "correctIndex": 0
        },
        {
            "question": "Câu lạc bộ bóng đá nào của nước Anh có biểu tượng là chú gà chọi?",
            "answers": [
                "Everton",
                "Leicester City",
                "Leeds United",
                "Tottenham Hotspur"
            ],
            "correctIndex": 3
        },
        {
            "question": "Đâu là tên một loại hoa?",
            "answers": [
                "Xẻng",
                "Mai",
                "Cọc",
                "Cuốc"
            ],
            "correctIndex": 1
        },
        {
            "question": "Trong các cây cầu sau, cầu nào là cầu xoay?",
            "answers": [
                "Cầu Thanh Trì",
                "Cầu Thị Nại",
                "Cầu Sông Hàn",
                "Cầu Cần Thơ"
            ],
            "correctIndex": 2
        },
        {
            "question": "React is ............ Javascript library ",
            "answers": [
                "Module based",
                "Component based",
                "System based",
                "All are correct"
            ],
            "correctIndex": 1
        },
        {
            "question": "A valid react component can return ...... number of elements. ",
            "answers": [
                "1",
                "2",
                "3",
                "None of the Above"
            ],
            "correctIndex": 0
        },
        {
            "question": "An Dương Vương đặt quốc hiệu nước ta là gì?",
            "answers": [
                "Âu Lạc",
                "Vạn Xuân",
                "Đại Cồ Việt",
                "Đại Việt"
            ],
            "correctIndex": 0
        },
        {
            "question": "Vị chúa nào của chúa Nguyễn là người đầu tiên đã phác thảo ra hình dáng chiếc áo dài Việt Nam?",
            "answers": [
                "Nguyễn Phúc Thuần",
                "Nguyễn Phúc Khoát",
                "Nguyễn Phúc Thái",
                "Nguyễn Phúc Chu"
            ],
            "correctIndex": 1
        },
        {
            "question": "Khí độc Sarin có chứa thành phần nguyên tố Halogen nào?",
            "answers": [
                "Flo",
                "Clo",
                "Brom",
                "Iot"
            ],
            "correctIndex": 1
        },
        {
            "question": "Ngôi trường đầu tiên mang tên cố Thủ tướng Võ Văn Kiệt nằm ở tỉnh  nào?",
            "answers": [
                "Long An",
                "Bình Dương",
                "Bình Phước",
                "Vĩnh Long"
            ],
            "correctIndex": 3
        }
    ]
}